-a="C:\Users\User\Desktop\Projects\TaskForInternship2\Task\Library\PlayerScriptAssemblies\Assembly-CSharp.dll"
-a="C:\Users\User\Desktop\Projects\TaskForInternship2\Task\Library\PlayerScriptAssemblies\UnityEngine.TestRunner.dll"
-a="C:\Users\User\Desktop\Projects\TaskForInternship2\Task\Library\PlayerScriptAssemblies\Unity.Timeline.dll"
-a="C:\Users\User\Desktop\Projects\TaskForInternship2\Task\Library\PlayerScriptAssemblies\Unity.TextMeshPro.dll"
-a="C:\Users\User\Desktop\Projects\TaskForInternship2\Task\Library\PlayerScriptAssemblies\Unity.VisualScripting.Flow.dll"
-a="C:\Users\User\Desktop\Projects\TaskForInternship2\Task\Library\PlayerScriptAssemblies\UnityEngine.UI.dll"
-a="C:\Users\User\Desktop\Projects\TaskForInternship2\Task\Library\PlayerScriptAssemblies\Unity.VisualScripting.State.dll"
-a="C:\Users\User\Desktop\Projects\TaskForInternship2\Task\Library\PlayerScriptAssemblies\Unity.VisualScripting.Core.dll"
-a="C:\Users\User\Desktop\Projects\TaskForInternship2\Task\Library\PlayerScriptAssemblies\Unity.Recorder.dll"
-a="C:\Users\User\Desktop\Projects\TaskForInternship2\Task\Library\PlayerScriptAssemblies\Unity.Recorder.Base.dll"
-a="C:\Users\User\Desktop\Projects\TaskForInternship2\Task\Library\PackageCache\com.unity.nuget.newtonsoft-json@2.0.0\Runtime\AOT\Newtonsoft.Json.dll"
-a="C:\Users\User\Desktop\Projects\TaskForInternship2\Task\Library\PackageCache\com.unity.nuget.newtonsoft-json@2.0.0\Runtime\Portable\Newtonsoft.Json.dll"
-a="C:\Users\User\Desktop\Projects\TaskForInternship2\Task\Library\PackageCache\com.unity.visualscripting@1.7.6\Runtime\VisualScripting.Flow\Dependencies\NCalc\Unity.VisualScripting.Antlr3.Runtime.dll"
-a="C:\Users\User\Desktop\Projects\TaskForInternship2\Task\Library\PackageCache\com.unity.testtools.codecoverage@1.0.1\lib\ReportGenerator\ReportGeneratorMerged.dll"
-a="C:\Users\User\Desktop\Projects\TaskForInternship2\Task\Library\PackageCache\com.unity.nuget.newtonsoft-json@2.0.0\Runtime\Newtonsoft.Json.dll"
-a="C:\Users\User\Desktop\Projects\TaskForInternship2\Task\Library\PackageCache\com.unity.ext.nunit@1.0.6\net35\unity-custom\nunit.framework.dll"
-s="C:\Program Files\Unity\Hub\Editor\2021.2.9f1\Editor\Data\Managed\UnityEngine"
-s="C:\Users\User\Desktop\Projects\TaskForInternship2\Task\Library\PlayerScriptAssemblies"
-s="C:\Users\User\Desktop\Projects\TaskForInternship2\Task\Library\PackageCache\com.unity.nuget.newtonsoft-json@2.0.0\Runtime\AOT"
-s="C:\Users\User\Desktop\Projects\TaskForInternship2\Task\Library\PackageCache\com.unity.nuget.newtonsoft-json@2.0.0\Runtime\Portable"
-s="C:\Users\User\Desktop\Projects\TaskForInternship2\Task\Library\PackageCache\com.unity.visualscripting@1.7.6\Runtime\VisualScripting.Flow\Dependencies\NCalc"
-s="C:\Users\User\Desktop\Projects\TaskForInternship2\Task\Library\PackageCache\com.unity.testtools.codecoverage@1.0.1\lib\ReportGenerator"
-s="C:\Users\User\Desktop\Projects\TaskForInternship2\Task\Library\PackageCache\com.unity.nuget.newtonsoft-json@2.0.0\Runtime"
-s="C:\Users\User\Desktop\Projects\TaskForInternship2\Task\Library\PackageCache\com.unity.ext.nunit@1.0.6\net35\unity-custom"
-s="C:\Program Files\Unity\Hub\Editor\2021.2.9f1\Editor\Data\Managed\UnityEngine"
-s="C:\Program Files\Unity\Hub\Editor\2021.2.9f1\Editor\Data\UnityReferenceAssemblies\unity-4.8-api"
-s="C:\Program Files\Unity\Hub\Editor\2021.2.9f1\Editor\Data\UnityReferenceAssemblies\unity-4.8-api\Facades"
-o="C:\Users\User\Desktop\Projects\TaskForInternship2\Task\Library\BuildPlayerData\Player"
-rn="RuntimeInitializeOnLoads.json"
-tn="TypeDb-All.json"
